ass2/generated/ControlUnit.vcd
$date
2022-11-06T07:20+0000
$end
$version
0.2
$end
$comment

$end
$timescale 1ns  $end
$scope module ControlUnit $end
 $var wire 1 ! _GEN_22 $end
 $var wire 1 " _GEN_10 $end
 $var wire 1 # _GEN_2 $end
 $var wire 2 $ _T $end
 $var wire 1 % _GEN_31 $end
 $var wire 1 & _GEN_25 $end
 $var wire 8 ' io_opcode $end
 $var wire 1 ( _GEN_5 $end
 $var wire 1 ) _GEN_13 $end
 $var wire 1 * _GEN_8 $end
 $var wire 1 + _GEN_30 $end
 $var wire 4 , _GEN_24 $end
 $var wire 4 - io_aluSel $end
 $var wire 4 . _GEN_27 $end
 $var wire 1 / _GEN_33 $end
 $var wire 1 0 _GEN_15 $end
 $var wire 1 1 _GEN_4 $end
 $var wire 1 2 io_regWrite $end
 $var wire 1 3 io_dataWrite $end
 $var wire 1 4 clock $end
 $var wire 1 5 io_immediateOp $end
 $var wire 1 6 io_memRegWrite $end
 $var wire 1 7 _GEN_17 $end
 $var wire 1 8 io_done $end
 $var wire 1 9 _GEN_32 $end
 $var wire 1 : _GEN_11 $end
 $var wire 1 ; _GEN_20 $end
 $var wire 1 < _GEN_29 $end
 $var wire 1 = _GEN_6 $end
 $var wire 1 > io_immediateRegWrite $end
 $var wire 1 ? io_immediateWriteSel $end
 $var wire 1 @ io_immediateAddr $end
 $var wire 1 A reset $end
 $var wire 4 B _GEN_3 $end
 $var wire 1 C _GEN_34 $end
 $var wire 1 D _GEN_28 $end
$upscope $end
$enddefinitions $end
$dumpvars
0%
0C
0;
0&
0<
0=
0>
06
0!
07
0"
08
0#
b00 $
09
0:
02
03
b00000000 '
04
05
b0000 .
0D
0/
00
0(
01
0)
0?
0*
b0000 ,
0@
0+
b0000 B
b0000 -
0A
$end
#0
11
12
17
1A
#1
14
#6
04
#11
14
#16
04
#21
14
#26
04
#31
14
#36
04
#41
14
#46
04
0A
#51
14
#56
04
#61
14
#66
04
#71
14
#76
04
#81
14
#86
04
#91
14
#96
b0001 B
b0001 -
04
b00000001 '
#101
14
#106
04
#111
14
#116
04
#121
14
#126
04
#131
14
#136
04
#141
14
#146
b0010 B
b0010 -
04
b00000010 '
#151
14
#156
04
#161
14
#166
04
#171
14
#176
04
#181
14
#186
04
#191
14
#196
b0011 B
b0011 -
04
b00000011 '
#201
14
#206
04
#211
14
#216
04
#221
14
#226
04
#231
14
#236
04
#241
14
#246
b0100 B
b0100 -
04
b00000100 '
#251
14
#256
04
#261
14
#266
04
#271
14
#276
04
#281
14
#286
04
#291
14
#296
b0101 B
b0101 -
04
b00000101 '
#301
14
#306
04
#311
14
#316
04
#321
14
#326
04
#331
14
#336
04
#341
14
#346
b0110 B
b0110 -
04
b00000110 '
#351
14
#356
04
#361
14
#366
04
#371
14
#376
04
#381
14
#386
04
#391
14
#396
b0111 B
b0111 -
04
b00000111 '
#401
14
#406
04
#411
14
#416
04
#421
14
#426
04
#431
14
#436
04
#441
14
#446
b1000 B
b1000 -
04
b00001000 '
#451
14
#456
04
#461
14
#466
04
#471
14
#476
04
#481
14
#486
04
#491
14
#496
b0000 B
b0000 -
04
b00010000 '
16
1:
1(
#501
14
#506
04
#511
14
#516
04
#521
14
#526
04
#531
14
#536
04
#541
14
#546
13
04
01
1#
02
1*
b00100000 '
06
1=
0(
1)
1;
#551
14
#556
04
#561
14
#566
04
#571
14
#576
04
#581
14
#586
04
#591
14
#596
03
1<
04
15
1D
b01000000 '
0=
0)
1?
11
0#
12
0*
b01 $
0:
0;
#601
14
#606
04
#611
14
#616
04
#621
14
#626
04
#631
14
#636
04
#641
14
#646
b0001 B
b0001 -
04
b0001 .
b01000001 '
#651
14
#656
04
#661
14
#666
04
#671
14
#676
04
#681
14
#686
04
#691
14
#696
b0000 B
b0000 -
0<
04
b0000 .
05
b01010000 '
1+
1:
1(
1>
#701
14
#706
04
#711
14
#716
04
#721
14
#726
04
#731
14
#736
04
#741
14
#746
1%
04
b01100000 '
16
1=
0(
0>
1)
01
1@
1#
1*
19
0+
1;
#751
14
#756
04
#761
14
#766
04
#771
14
#776
04
#781
14
#786
04
#791
14
#796
13
04
0D
b01110000 '
06
0=
07
1/
1!
10
1"
0#
02
09
0:
#801
14
#806
04
#811
14
#816
04
#821
14
#826
04
#831
14
#836
04
#841
14
#846
03
b1111 B
b1111 -
0%
04
b1111 .
b10001111 '
17
0/
0)
0!
00
0?
0"
11
0@
0*
b10 $
b1111 ,
0;
#851
14
#856
04
#861
14
#866
04
#871
14
#876
04
#881
14
#886
04
#891
14
#896
b1001 B
b1001 -
04
b1001 .
b10001001 '
b1001 ,
#901
14
#906
04
#911
14
#916
04
#921
14
#926
04
#931
14
#936
04
#941
14
#946
b1010 B
b1010 -
04
b1010 .
b10001010 '
b1010 ,
#951
14
#956
04
#961
14
#966
04
#971
14
#976
04
#981
14
#986
04
#991
14
#996
b1011 B
b1011 -
04
b1011 .
b10001011 '
b1011 ,
#1001
14
#1006
04
#1011
14
#1016
04
#1021
14
#1026
04
#1031
14
#1036
04
#1041
14
#1046
b1100 B
b1100 -
04
b1100 .
b10001100 '
b1100 ,
#1051
14
#1056
04
#1061
14
#1066
04
#1071
14
#1076
04
#1081
14
#1086
04
#1091
14
#1096
b1101 B
b1101 -
04
b1101 .
b10001101 '
b1101 ,
#1101
14
#1106
04
#1111
14
#1116
04
#1121
14
#1126
04
#1131
14
#1136
04
#1141
14
#1146
b1110 B
b1110 -
04
b1110 .
b10001110 '
b1110 ,
#1151
14
#1156
04
#1161
14
#1166
04
#1171
14
#1176
04
#1181
14
#1186
04
#1191
14
#1196
b0000 B
b0000 -
04
1C
b0000 .
1&
18
b11000000 '
b11 $
b0000 ,
