ass2/generated/RegisterFile.vcd
$date
2022-11-06T07:31+0000
$end
$version
0.2
$end
$comment

$end
$timescale 1ns  $end
$scope module RegisterFile $end
 $var wire 32 ! _GEN_37 $end
 $var wire 32 " _GEN_22 $end
 $var wire 32 # _GEN_16 $end
 $var wire 32 $ _GEN_43 $end
 $var wire 32 % _GEN_2 $end
 $var wire 32 & _GEN_10 $end
 $var wire 32 ' _GEN_31 $end
 $var wire 32 ( _GEN_19 $end
 $var wire 32 ) _GEN_25 $end
 $var wire 32 * _GEN_5 $end
 $var wire 32 + registers_8 $end
 $var wire 32 , _GEN_60 $end
 $var wire 32 - _GEN_13 $end
 $var wire 4 . io_bSel $end
 $var wire 32 / _GEN_57 $end
 $var wire 32 0 _GEN_8 $end
 $var wire 32 1 registers_15 $end
 $var wire 32 2 registers_2 $end
 $var wire 32 3 _GEN_42 $end
 $var wire 32 4 _GEN_51 $end
 $var wire 32 5 registers_5 $end
 $var wire 32 6 _GEN_24 $end
 $var wire 32 7 _GEN_30 $end
 $var wire 32 8 _GEN_39 $end
 $var wire 32 9 _GEN_45 $end
 $var wire 32 : _GEN_27 $end
 $var wire 32 ; _GEN_33 $end
 $var wire 32 < registers_12 $end
 $var wire 32 = _GEN_54 $end
 $var wire 32 > _GEN_12 $end
 $var wire 32 ? _GEN_7 $end
 $var wire 32 @ _GEN_15 $end
 $var wire 32 A _GEN_36 $end
 $var wire 32 B _GEN_21 $end
 $var wire 32 C io_b $end
 $var wire 32 D registers_4 $end
 $var wire 32 E _GEN_1 $end
 $var wire 32 F _GEN_18 $end
 $var wire 32 G registers_7 $end
 $var wire 32 H _GEN_4 $end
 $var wire 32 I _GEN_53 $end
 $var wire 32 J _GEN_56 $end
 $var wire 32 K _GEN_41 $end
 $var wire 1 L clock $end
 $var wire 32 M _GEN_35 $end
 $var wire 32 N _GEN_62 $end
 $var wire 32 O registers_1 $end
 $var wire 32 P registers_14 $end
 $var wire 4 Q io_writeSel $end
 $var wire 1 R io_writeEnable $end
 $var wire 32 S io_writeData $end
 $var wire 32 T _GEN_50 $end
 $var wire 32 U _GEN_23 $end
 $var wire 32 V _GEN_38 $end
 $var wire 32 W _GEN_44 $end
 $var wire 32 X _GEN_59 $end
 $var wire 32 Y _GEN_17 $end
 $var wire 32 Z _GEN_26 $end
 $var wire 32 [ registers_11 $end
 $var wire 4 \ io_aSel $end
 $var wire 32 ] _GEN_11 $end
 $var wire 32 ^ _GEN_20 $end
 $var wire 32 _ _GEN_29 $end
 $var wire 32 ` _GEN_6 $end
 $var wire 32 a _GEN_14 $end
 $var wire 32 b _GEN_0 $end
 $var wire 32 c io_a $end
 $var wire 32 d registers_3 $end
 $var wire 32 e _GEN_9 $end
 $var wire 32 f _GEN_58 $end
 $var wire 32 g registers_10 $end
 $var wire 32 h _GEN_52 $end
 $var wire 1 i reset $end
 $var wire 32 j _GEN_3 $end
 $var wire 32 k registers_6 $end
 $var wire 32 l _GEN_46 $end
 $var wire 32 m registers_9 $end
 $var wire 32 n _GEN_34 $end
 $var wire 32 o _GEN_61 $end
 $var wire 32 p _GEN_28 $end
 $var wire 32 q registers_13 $end
 $var wire 32 r registers_0 $end
 $var wire 32 s _GEN_40 $end
 $var wire 32 t _GEN_49 $end
 $var wire 32 u _GEN_55 $end
$upscope $end
$enddefinitions $end
$dumpvars
b00000000000000000000000000000000 n
b00000000000000000000000000000000 Y
b00000000000000000000000000000000 D
b00000000000000000000000000000000 <
b00000000000000000000000000000000 '
b00000000000000000000000000000000 p
b00000000000000000000000000000000 [
b00000000000000000000000000000000 S
0R
b00000000000000000000000000000000 >
b00000000000000000000000000000000 !
b00000000000000000000000000000000 r
b00000000000000000000000000000000 j
0i
b00000000000000000000000000000000 U
b00000000000000000000000000000000 8
b00000000000000000000000000000000 #
b00000000000000000000000000000000 l
b00000000000000000000000000000000 O
b00000000000000000000000000000000 :
b00000000000000000000000000000000 2
b0000 Q
b00000000000000000000000000000000 f
b00000000000000000000000000000000 I
b00000000000000000000000000000000 4
b00000000000000000000000000000000 h
b00000000000000000000000000000000 `
b00000000000000000000000000000000 K
b00000000000000000000000000000000 6
b0000 .
b00000000000000000000000000000000 b
b00000000000000000000000000000000 M
0L
b00000000000000000000000000000000 E
b00000000000000000000000000000000 0
b00000000000000000000000000000000 d
b0000 \
b00000000000000000000000000000000 G
b00000000000000000000000000000000 *
b00000000000000000000000000000000 s
b00000000000000000000000000000000 ^
b00000000000000000000000000000000 A
b00000000000000000000000000000000 ,
b00000000000000000000000000000000 $
b00000000000000000000000000000000 u
b00000000000000000000000000000000 X
b00000000000000000000000000000000 C
b00000000000000000000000000000000 ;
b00000000000000000000000000000000 &
b00000000000000000000000000000000 o
b00000000000000000000000000000000 Z
b00000000000000000000000000000000 =
b00000000000000000000000000000000 (
b00000000000000000000000000000000 q
b00000000000000000000000000000000 T
b00000000000000000000000000000000 ?
b00000000000000000000000000000000 7
b00000000000000000000000000000000 "
b00000000000000000000000000000000 k
b00000000000000000000000000000000 V
b00000000000000000000000000000000 N
b00000000000000000000000000000000 9
b00000000000000000000000000000000 m
b00000000000000000000000000000000 e
b00000000000000000000000000000000 P
b00000000000000000000000000000000 3
b00000000000000000000000000000000 g
b00000000000000000000000000000000 J
b00000000000000000000000000000000 5
b00000000000000000000000000000000 a
b00000000000000000000000000000000 /
b00000000000000000000000000000000 c
b00000000000000000000000000000000 F
b00000000000000000000000000000000 1
b00000000000000000000000000000000 )
b00000000000000000000000000000000 ]
b00000000000000000000000000000000 H
b00000000000000000000000000000000 @
b00000000000000000000000000000000 +
b00000000000000000000000000000000 t
b00000000000000000000000000000000 _
b00000000000000000000000000000000 W
b00000000000000000000000000000000 B
b00000000000000000000000000000000 -
b00000000000000000000000000000000 %
$end
#0
1i
#1
1L
#6
0L
#11
1L
#16
0L
#21
1L
#26
0L
#31
1L
#36
0L
#41
1L
#46
b00000000000000000000000000010110 S
0i
0L
b00000000000000000000000000010110 b
#51
1L
#56
0L
#61
1L
#66
b0001 Q
b00000000000000000000000000010111 S
b00000000000000000000000000010111 E
0L
b00000000000000000000000000000000 b
#71
1L
#76
b0001 .
0L
b0001 \
#81
1L
#86
b0010 Q
b00000000000000000000000000011000 %
b00000000000000000000000000011000 S
b00000000000000000000000000000000 E
0L
#91
1L
#96
b0010 .
0L
b0010 \
#101
1L
#106
b0011 Q
b00000000000000000000000000000000 %
b00000000000000000000000000011001 S
0L
b00000000000000000000000000011001 j
#111
1L
#116
b0011 .
0L
b0011 \
#121
1L
#126
b0100 Q
b00000000000000000000000000011010 S
b00000000000000000000000000011010 H
0L
b00000000000000000000000000000000 j
#131
1L
#136
b0100 .
0L
b0100 \
#141
1L
#146
b0101 Q
b00000000000000000000000000011011 S
b00000000000000000000000000011011 *
b00000000000000000000000000000000 H
0L
#151
1L
#156
b0101 .
0L
b0101 \
#161
1L
#166
b0110 Q
b00000000000000000000000000011100 `
b00000000000000000000000000011100 S
b00000000000000000000000000000000 *
0L
#171
1L
#176
b0110 .
0L
b0110 \
#181
1L
#186
b0111 Q
b00000000000000000000000000011101 ?
b00000000000000000000000000000000 `
b00000000000000000000000000011101 S
0L
#191
1L
#196
b0111 .
0L
b0111 \
#201
1L
#206
b00000000000000000000000000011110 0
b1000 Q
b00000000000000000000000000000000 ?
b00000000000000000000000000011110 S
0L
#211
1L
#216
b1000 .
0L
b1000 \
#221
1L
#226
b00000000000000000000000000000000 0
b1001 Q
b00000000000000000000000000011111 S
b00000000000000000000000000011111 e
0L
#231
1L
#236
b1001 .
0L
b1001 \
#241
1L
#246
b1010 Q
b00000000000000000000000000100000 &
b00000000000000000000000000100000 S
b00000000000000000000000000000000 e
0L
#251
1L
#256
b1010 .
0L
b1010 \
#261
1L
#266
b1011 Q
b00000000000000000000000000000000 &
b00000000000000000000000000100001 S
b00000000000000000000000000100001 ]
0L
#271
1L
#276
b1011 .
0L
b1011 \
#281
1L
#286
b1100 Q
b00000000000000000000000000100010 S
b00000000000000000000000000000000 ]
0L
b00000000000000000000000000100010 >
#291
1L
#296
b1100 .
0L
b1100 \
#301
1L
#306
b1101 Q
b00000000000000000000000000100011 -
b00000000000000000000000000100011 S
0L
b00000000000000000000000000000000 >
#311
1L
#316
b1101 .
0L
b1101 \
#321
1L
#326
b1110 Q
b00000000000000000000000000000000 -
b00000000000000000000000000100100 S
b00000000000000000000000000100100 a
0L
#331
1L
#336
b1110 .
0L
b1110 \
#341
1L
#346
b1111 Q
b00000000000000000000000000100101 @
b00000000000000000000000000100101 S
b00000000000000000000000000000000 a
0L
#351
1L
#356
b1111 .
0L
b1111 \
#361
1L
#366
0L
#371
1L
#376
0L
#381
1L
#386
0L
#391
1L
#396
0L
#401
1L
#406
0L
#411
1L
#416
b0000 Q
1R
b00000000000000000000000000000000 @
b00000000000000000000000000010110 #
b00000000000000000000000000010110 S
0L
b00000000000000000000000000010110 b
#421
b00000000000000000000000000010110 3
b00000000000000000000000000010110 f
b00000000000000000000000000010110 4
b00000000000000000000000000010110 J
b00000000000000000000000000010110 h
b00000000000000000000000000010110 K
1L
b00000000000000000000000000010110 /
b00000000000000000000000000010110 M
b00000000000000000000000000010110 N
b00000000000000000000000000010110 I
b00000000000000000000000000010110 A
b00000000000000000000000000010110 t
b00000000000000000000000000010110 ,
b00000000000000000000000000010110 u
b00000000000000000000000000010110 X
b00000000000000000000000000010110 o
b00000000000000000000000000010110 =
b00000000000000000000000000010110 !
b00000000000000000000000000010110 T
b00000000000000000000000000010110 r
b00000000000000000000000000010110 s
b00000000000000000000000000010110 8
b00000000000000000000000000010110 V
b00000000000000000000000000010110 9
b00000000000000000000000000010110 $
b00000000000000000000000000010110 W
b00000000000000000000000000010110 l
b00000000000000000000000000010110 ;
b00000000000000000000000000010110 n
#426
b00000000000000000000000000010110 c
b00000000000000000000000000010110 C
b0000 .
0L
b0000 \
#431
1L
#436
b0001 Q
b00000000000000000000000000010111 Y
b00000000000000000000000000010111 S
b00000000000000000000000000010111 E
0L
#441
b00000000000000000000000000010111 O
1L
#446
b00000000000000000000000000010111 3
b00000000000000000000000000010111 f
b00000000000000000000000000010111 4
b00000000000000000000000000010111 J
b00000000000000000000000000010111 h
b00000000000000000000000000010111 K
0L
b00000000000000000000000000010111 /
b00000000000000000000000000010111 M
b00000000000000000000000000010111 c
b00000000000000000000000000010111 N
b00000000000000000000000000010111 I
b00000000000000000000000000010111 A
b00000000000000000000000000010111 t
b00000000000000000000000000010111 ,
b00000000000000000000000000010111 u
b00000000000000000000000000010111 X
b00000000000000000000000000010111 C
b0001 .
b00000000000000000000000000010111 o
b00000000000000000000000000010111 =
b0001 \
b00000000000000000000000000010111 !
b00000000000000000000000000010111 T
b00000000000000000000000000010111 s
b00000000000000000000000000010111 8
b00000000000000000000000000010111 V
b00000000000000000000000000010111 9
b00000000000000000000000000010111 $
b00000000000000000000000000010111 W
b00000000000000000000000000010111 l
b00000000000000000000000000010111 ;
b00000000000000000000000000010111 n
#451
1L
#456
b0010 Q
b00000000000000000000000000011000 %
b00000000000000000000000000011000 F
b00000000000000000000000000011000 S
0L
#461
b00000000000000000000000000011000 2
1L
#466
b00000000000000000000000000011000 3
b00000000000000000000000000011000 f
b00000000000000000000000000011000 4
b00000000000000000000000000011000 J
b00000000000000000000000000011000 h
b00000000000000000000000000011000 K
0L
b00000000000000000000000000011000 /
b00000000000000000000000000011000 M
b00000000000000000000000000011000 c
b00000000000000000000000000011000 N
b00000000000000000000000000011000 I
b00000000000000000000000000011000 A
b00000000000000000000000000010110 t
b00000000000000000000000000011000 ,
b00000000000000000000000000011000 u
b00000000000000000000000000011000 X
b00000000000000000000000000011000 C
b0010 .
b00000000000000000000000000011000 o
b00000000000000000000000000011000 =
b0010 \
b00000000000000000000000000011000 !
b00000000000000000000000000011000 T
b00000000000000000000000000011000 s
b00000000000000000000000000011000 8
b00000000000000000000000000011000 V
b00000000000000000000000000011000 9
b00000000000000000000000000011000 $
b00000000000000000000000000011000 W
b00000000000000000000000000011000 l
b00000000000000000000000000010110 ;
b00000000000000000000000000011000 n
#471
1L
#476
b0011 Q
b00000000000000000000000000011001 S
0L
b00000000000000000000000000011001 (
b00000000000000000000000000011001 j
#481
b00000000000000000000000000011001 d
1L
#486
b00000000000000000000000000011001 3
b00000000000000000000000000011001 f
b00000000000000000000000000011001 4
b00000000000000000000000000011001 J
b00000000000000000000000000011001 h
b00000000000000000000000000011001 K
0L
b00000000000000000000000000011001 /
b00000000000000000000000000011001 M
b00000000000000000000000000011001 c
b00000000000000000000000000011001 N
b00000000000000000000000000011001 I
b00000000000000000000000000011001 A
b00000000000000000000000000011001 ,
b00000000000000000000000000011001 u
b00000000000000000000000000011001 X
b00000000000000000000000000011001 C
b0011 .
b00000000000000000000000000011001 o
b00000000000000000000000000011001 =
b0011 \
b00000000000000000000000000011001 !
b00000000000000000000000000010110 T
b00000000000000000000000000011001 s
b00000000000000000000000000011001 8
b00000000000000000000000000011001 V
b00000000000000000000000000011001 9
b00000000000000000000000000011001 $
b00000000000000000000000000011001 W
b00000000000000000000000000011001 l
b00000000000000000000000000010110 n
#491
1L
#496
b0100 Q
b00000000000000000000000000011010 S
b00000000000000000000000000011010 H
0L
b00000000000000000000000000011010 ^
#501
b00000000000000000000000000011010 D
1L
#506
b00000000000000000000000000011010 3
b00000000000000000000000000011010 f
b00000000000000000000000000010110 4
b00000000000000000000000000011010 J
b00000000000000000000000000011010 h
b00000000000000000000000000011010 K
0L
b00000000000000000000000000011010 /
b00000000000000000000000000010110 M
b00000000000000000000000000011010 c
b00000000000000000000000000011010 N
b00000000000000000000000000011010 I
b00000000000000000000000000011010 A
b00000000000000000000000000011010 ,
b00000000000000000000000000011010 u
b00000000000000000000000000011010 X
b00000000000000000000000000011010 C
b0100 .
b00000000000000000000000000011010 o
b00000000000000000000000000011010 =
b0100 \
b00000000000000000000000000011010 !
b00000000000000000000000000011010 s
b00000000000000000000000000011010 8
b00000000000000000000000000011010 V
b00000000000000000000000000011010 9
b00000000000000000000000000011010 $
b00000000000000000000000000011010 W
b00000000000000000000000000011010 l
#511
1L
#516
b00000000000000000000000000011011 B
b0101 Q
b00000000000000000000000000011011 S
b00000000000000000000000000011011 *
0L
#521
b00000000000000000000000000011011 5
1L
#526
b00000000000000000000000000011011 3
b00000000000000000000000000011011 f
b00000000000000000000000000011011 u
b00000000000000000000000000011011 X
b00000000000000000000000000011011 C
b0101 .
b00000000000000000000000000011011 J
b00000000000000000000000000010110 h
b00000000000000000000000000011011 K
b00000000000000000000000000011011 o
b00000000000000000000000000011011 =
0L
b00000000000000000000000000011011 /
b0101 \
b00000000000000000000000000011011 !
b00000000000000000000000000011011 c
b00000000000000000000000000011011 N
b00000000000000000000000000011011 s
b00000000000000000000000000011011 8
b00000000000000000000000000011011 V
b00000000000000000000000000011011 9
b00000000000000000000000000011011 $
b00000000000000000000000000011011 W
b00000000000000000000000000011011 l
b00000000000000000000000000011011 I
b00000000000000000000000000010110 A
b00000000000000000000000000011011 ,
#531
1L
#536
b0110 Q
b00000000000000000000000000011100 `
b00000000000000000000000000011100 "
b00000000000000000000000000011100 S
0L
#541
b00000000000000000000000000011100 k
1L
#546
b00000000000000000000000000011100 3
b00000000000000000000000000011100 f
b00000000000000000000000000011100 u
b00000000000000000000000000011100 X
b00000000000000000000000000011100 C
b0110 .
b00000000000000000000000000011100 J
b00000000000000000000000000011100 K
b00000000000000000000000000011100 o
b00000000000000000000000000011100 =
0L
b00000000000000000000000000011100 /
b0110 \
b00000000000000000000000000010110 !
b00000000000000000000000000011100 c
b00000000000000000000000000011100 N
b00000000000000000000000000011100 s
b00000000000000000000000000011100 8
b00000000000000000000000000011100 V
b00000000000000000000000000011100 9
b00000000000000000000000000011100 $
b00000000000000000000000000011100 W
b00000000000000000000000000011100 l
b00000000000000000000000000010110 I
b00000000000000000000000000011100 ,
#551
1L
#556
b0111 Q
b00000000000000000000000000011101 ?
b00000000000000000000000000011101 U
b00000000000000000000000000011101 S
0L
#561
b00000000000000000000000000011101 G
1L
#566
b00000000000000000000000000011101 3
b00000000000000000000000000011101 f
b00000000000000000000000000011101 u
b00000000000000000000000000011101 X
b00000000000000000000000000011101 C
b0111 .
b00000000000000000000000000011101 J
b00000000000000000000000000011101 K
b00000000000000000000000000011101 o
b00000000000000000000000000010110 =
0L
b00000000000000000000000000011101 /
b0111 \
b00000000000000000000000000011101 c
b00000000000000000000000000011101 N
b00000000000000000000000000011101 s
b00000000000000000000000000011101 8
b00000000000000000000000000010110 V
b00000000000000000000000000011101 9
b00000000000000000000000000011101 $
b00000000000000000000000000011101 W
b00000000000000000000000000011101 l
b00000000000000000000000000011101 ,
#571
1L
#576
b00000000000000000000000000011110 0
b1000 Q
b00000000000000000000000000011110 S
b00000000000000000000000000011110 6
0L
#581
b00000000000000000000000000011110 +
1L
#586
b00000000000000000000000000011110 3
b00000000000000000000000000011110 f
b00000000000000000000000000010110 u
b00000000000000000000000000011110 X
b00000000000000000000000000011110 C
b1000 .
b00000000000000000000000000011110 J
b00000000000000000000000000011110 K
b00000000000000000000000000011110 o
0L
b00000000000000000000000000011110 /
b1000 \
b00000000000000000000000000011110 c
b00000000000000000000000000011110 N
b00000000000000000000000000011110 s
b00000000000000000000000000010110 8
b00000000000000000000000000011110 9
b00000000000000000000000000011110 $
b00000000000000000000000000011110 W
b00000000000000000000000000011110 l
b00000000000000000000000000011110 ,
#591
1L
#596
b1001 Q
b00000000000000000000000000011111 S
b00000000000000000000000000011111 e
0L
b00000000000000000000000000011111 )
#601
1L
b00000000000000000000000000011111 m
#606
b00000000000000000000000000011111 3
b00000000000000000000000000011111 f
b00000000000000000000000000011111 X
b00000000000000000000000000011111 C
b1001 .
b00000000000000000000000000010110 J
b00000000000000000000000000011111 K
b00000000000000000000000000011111 o
0L
b00000000000000000000000000011111 /
b1001 \
b00000000000000000000000000011111 c
b00000000000000000000000000011111 N
b00000000000000000000000000010110 s
b00000000000000000000000000011111 9
b00000000000000000000000000011111 $
b00000000000000000000000000011111 W
b00000000000000000000000000011111 l
b00000000000000000000000000011111 ,
#611
1L
#616
b1010 Q
b00000000000000000000000000100000 &
b00000000000000000000000000100000 S
b00000000000000000000000000100000 Z
0L
#621
b00000000000000000000000000100000 g
1L
#626
b00000000000000000000000000100000 3
b00000000000000000000000000100000 f
b00000000000000000000000000100000 X
b00000000000000000000000000100000 C
b1010 .
b00000000000000000000000000010110 K
b00000000000000000000000000100000 o
0L
b00000000000000000000000000010110 /
b1010 \
b00000000000000000000000000100000 c
b00000000000000000000000000100000 N
b00000000000000000000000000100000 9
b00000000000000000000000000100000 $
b00000000000000000000000000100000 W
b00000000000000000000000000100000 l
b00000000000000000000000000100000 ,
#631
1L
#636
b1011 Q
b00000000000000000000000000100001 S
b00000000000000000000000000100001 ]
0L
b00000000000000000000000000100001 :
#641
1L
b00000000000000000000000000100001 [
#646
b00000000000000000000000000010110 3
b00000000000000000000000000010110 f
b00000000000000000000000000100001 X
b00000000000000000000000000100001 C
b1011 .
b00000000000000000000000000100001 o
0L
b1011 \
b00000000000000000000000000100001 c
b00000000000000000000000000100001 N
b00000000000000000000000000100001 9
b00000000000000000000000000100001 $
b00000000000000000000000000100001 W
b00000000000000000000000000100001 l
b00000000000000000000000000100001 ,
#651
1L
#656
b1100 Q
b00000000000000000000000000100010 S
0L
b00000000000000000000000000100010 p
b00000000000000000000000000100010 >
#661
b00000000000000000000000000100010 <
1L
#666
b00000000000000000000000000100010 c
b00000000000000000000000000100010 N
b00000000000000000000000000010110 X
b00000000000000000000000000100010 C
b1100 .
b00000000000000000000000000100010 9
b00000000000000000000000000010110 $
b00000000000000000000000000100010 W
b00000000000000000000000000100010 l
b00000000000000000000000000100010 o
0L
b00000000000000000000000000100010 ,
b1100 \
#671
1L
#676
b1101 Q
b00000000000000000000000000100011 -
b00000000000000000000000000100011 S
0L
b00000000000000000000000000100011 _
#681
1L
b00000000000000000000000000100011 q
#686
b00000000000000000000000000100011 c
b00000000000000000000000000100011 N
b00000000000000000000000000100011 C
b1101 .
b00000000000000000000000000100011 9
b00000000000000000000000000100011 l
b00000000000000000000000000010110 W
b00000000000000000000000000100011 o
0L
b00000000000000000000000000010110 ,
b1101 \
#691
1L
#696
b1110 Q
b00000000000000000000000000100100 S
b00000000000000000000000000100100 a
0L
b00000000000000000000000000100100 7
#701
1L
b00000000000000000000000000100100 P
#706
b00000000000000000000000000100100 c
b00000000000000000000000000100100 N
b00000000000000000000000000100100 C
b1110 .
b00000000000000000000000000010110 9
b00000000000000000000000000100100 l
b00000000000000000000000000010110 o
0L
b1110 \
#711
1L
#716
b1111 Q
b00000000000000000000000000100101 @
b00000000000000000000000000100101 S
b00000000000000000000000000100101 '
0L
#721
b00000000000000000000000000100101 1
1L
#726
b00000000000000000000000000100101 c
b00000000000000000000000000010110 N
b00000000000000000000000000100101 C
b1111 .
b00000000000000000000000000010110 l
0L
b1111 \
